{
    "content": [
        {
            "userid": 1,
            "username": "chenjie",
            "password": "chen",
            "nickname": null,
            "sex": null,
            "phone": null,
            "email": null,
            "truename": null,
            "idcard": null
        },
        {
            "userid": 2,
            "username": "marry",
            "password": "123",
            "nickname": null,
            "sex": "女",
            "phone": "2321321",
            "email": "234@qq.com",
            "truename": "小红",
            "idcard": "21321321211"
        },
        {
            "userid": 3,
            "username": "jack2",
            "password": "123",
            "nickname": null,
            "sex": "男",
            "phone": "ppp",
            "email": "123@qq.com",
            "truename": "123",
            "idcard": "6666"
        },
        {
            "userid": 4,
            "username": "json",
            "password": "123",
            "nickname": null,
            "sex": "女",
            "phone": "123",
            "email": "123@qq.com",
            "truename": "123",
            "idcard": "1231231231233"
        },
        {
            "userid": 7,
            "username": "li",
            "password": "li",
            "nickname": null,
            "sex": "男",
            "phone": "18802058888",
            "email": "11@qq.com",
            "truename": "li",
            "idcard": "1231231231233"
        },
        {
            "userid": 8,
            "username": "chen",
            "password": "li",
            "nickname": null,
            "sex": "男",
            "phone": "18802058888",
            "email": "11@qq.com",
            "truename": "li",
            "idcard": "1231231231233"
        },
        {
            "userid": 9,
            "username": "chen",
            "password": "li",
            "nickname": null,
            "sex": "男",
            "phone": "18802058888",
            "email": "11@qq.com",
            "truename": "li",
            "idcard": "1231231231233"
        },
        {
            "userid": 10,
            "username": "ming",
            "password": "ming",
            "nickname": null,
            "sex": "男",
            "phone": "18802058888",
            "email": "ming@qq.com",
            "truename": "ming",
            "idcard": "460005199202123756"
        },
        {
            "userid": 11,
            "username": "ming",
            "password": "ming",
            "nickname": null,
            "sex": "男",
            "phone": "18802058888",
            "email": "ming@qq.com",
            "truename": "ming",
            "idcard": "460005199202123756"
        },
        {
            "userid": 12,
            "username": "ming",
            "password": "ming",
            "nickname": null,
            "sex": "男",
            "phone": "18802058888",
            "email": "ming@qq.com",
            "truename": "ming",
            "idcard": "460005199202123756"
        }
    ],
    "pageable": {
        "sort": {
            "sorted": false,
            "unsorted": true,
            "empty": true
        },
        "offset": 0,
        "pageNumber": 0,
        "pageSize": 10,
        "paged": true,
        "unpaged": false
    },
    "last": false,
    "totalElements": 17,
    "totalPages": 2,
    "size": 10,
    "number": 0,
    "sort": {
        "sorted": false,
        "unsorted": true,
        "empty": true
    },
    "numberOfElements": 10,
    "first": true,
    "empty": false
}